<?xml version="1.0" encoding="UTF-8" standalone="no"?>
<svg
   version="1.1"
   viewBox="0 0 32 32"
   id="svg7"
   sodipodi:docname="view-refresh.svg"
   inkscape:version="1.2.1 (9c6d41e410, 2022-07-14)"
   xmlns:inkscape="http://www.inkscape.org/namespaces/inkscape"
   xmlns:sodipodi="http://sodipodi.sourceforge.net/DTD/sodipodi-0.dtd"
   xmlns="http://www.w3.org/2000/svg"
   xmlns:svg="http://www.w3.org/2000/svg">
  <sodipodi:namedview
     id="namedview9"
     pagecolor="#ffffff"
     bordercolor="#666666"
     borderopacity="1.0"
     inkscape:showpageshadow="2"
     inkscape:pageopacity="0.0"
     inkscape:pagecheckerboard="0"
     inkscape:deskcolor="#d1d1d1"
     showgrid="false"
     inkscape:zoom="8.2090678"
     inkscape:cx="6.2735503"
     inkscape:cy="24.606935"
     inkscape:window-width="1920"
     inkscape:window-height="1051"
     inkscape:window-x="0"
     inkscape:window-y="0"
     inkscape:window-maximized="1"
     inkscape:current-layer="svg7" />
  <defs
     id="defs3">
    <style
       type="text/css"
       id="current-color-scheme">.ColorScheme-Text {
        color:#232629;
      }</style>
  </defs>
  <path
     id="path5"
     style="fill:#232629;fill-opacity:1"
     class="ColorScheme-Text"
     d="M 16 4 C 15.737766 4 15.478753 4.012729 15.220703 4.0292969 C 15.217457 4.0295053 15.214182 4.0290859 15.210938 4.0292969 C 15.207053 4.0295624 15.203103 4.0290276 15.199219 4.0292969 C 15.192674 4.0297507 15.18623 4.0307855 15.179688 4.03125 C 14.919643 4.0488332 14.661488 4.0754848 14.40625 4.109375 C 12.781769 4.3250714 11.26143 4.8682927 9.9101562 5.6660156 L 10.638672 6.3945312 L 10.648438 6.4042969 C 12.079125 5.602449 13.668206 5.1315109 15.298828 5.0234375 C 15.531774 5.0079985 15.765705 5.0005635 16 5 C 16.229732 5.0005528 16.459059 5.0085815 16.6875 5.0234375 C 16.712342 5.0249702 16.736921 5.0275995 16.761719 5.0292969 C 16.974247 5.0445664 17.185676 5.0642854 17.396484 5.0917969 C 18.781971 5.2726081 20.125259 5.7169987 21.351562 6.4042969 L 21.361328 6.3945312 C 23.333024 7.4973188 24.93156 9.1873896 25.916016 11.230469 C 25.968777 11.339967 26.015249 11.452976 26.064453 11.564453 L 26.060547 11.59375 C 26.674497 12.981835 26.993997 14.482214 27 16 C 26.994981 17.516829 26.67676 19.016535 26.064453 20.404297 L 26.068359 20.429688 C 25.92811 20.747984 25.772125 21.057749 25.603516 21.359375 L 26.333984 22.089844 C 27.131707 20.73857 27.674929 19.218231 27.890625 17.59375 C 27.924515 17.338512 27.951167 17.080357 27.96875 16.820312 C 27.969192 16.813776 27.970272 16.807322 27.970703 16.800781 C 27.970971 16.796895 27.970439 16.792949 27.970703 16.789062 C 27.970914 16.785818 27.970495 16.782543 27.970703 16.779297 C 27.987271 16.521247 28 16.262234 28 16 C 28 15.732487 27.987939 15.468231 27.970703 15.205078 C 27.970576 15.203131 27.970832 15.201166 27.970703 15.199219 C 27.970251 15.19267 27.969213 15.186234 27.96875 15.179688 C 27.564898 9.2069752 22.793025 4.4351017 16.820312 4.03125 C 16.809883 4.0305447 16.7995 4.0299755 16.789062 4.0292969 C 16.527824 4.0123128 16.265533 4 16 4 z M 5.6660156 9.9101562 C 4.8682927 11.26143 4.3250713 12.781769 4.109375 14.40625 C 4.0754848 14.661488 4.0488332 14.919643 4.03125 15.179688 C 4.0305126 15.19012 4.030007 15.200501 4.0292969 15.210938 C 4.0290765 15.214175 4.0295147 15.217464 4.0292969 15.220703 C 4.012729 15.478753 4 15.737766 4 16 C 4 16.265533 4.0123128 16.527824 4.0292969 16.789062 C 4.0294235 16.79101 4.0291693 16.792974 4.0292969 16.794922 C 4.0298789 16.803415 4.0306499 16.811823 4.03125 16.820312 C 4.4351017 22.793025 9.2069752 27.564898 15.179688 27.96875 C 15.186234 27.969213 15.19267 27.970251 15.199219 27.970703 C 15.203113 27.97096 15.207042 27.97045 15.210938 27.970703 C 15.472176 27.987687 15.734467 28 16 28 C 16.262234 28 16.521247 27.987271 16.779297 27.970703 C 16.792974 27.969784 16.806642 27.969716 16.820312 27.96875 C 17.080357 27.951167 17.338512 27.924515 17.59375 27.890625 C 19.218231 27.674929 20.73857 27.131707 22.089844 26.333984 L 21.361328 25.605469 L 21.351562 25.595703 C 20.125259 26.283001 18.781971 26.727393 17.396484 26.908203 C 17.161073 26.938925 16.925017 26.961118 16.6875 26.976562 C 16.459059 26.991418 16.229732 26.999448 16 27 C 15.770268 26.999448 15.540941 26.991418 15.3125 26.976562 C 15.307951 26.976283 15.303375 26.976849 15.298828 26.976562 C 15.278546 26.975219 15.25855 26.972159 15.238281 26.970703 C 15.025753 26.955434 14.814324 26.935714 14.603516 26.908203 C 13.218029 26.727393 11.874741 26.283001 10.648438 25.595703 L 10.638672 25.605469 C 10.523339 25.540962 10.409598 25.476696 10.296875 25.408203 C 8.3772713 24.241823 6.8448855 22.502305 5.9316406 20.429688 L 5.9355469 20.404297 C 5.3232411 19.016535 5.0050188 17.516829 5 16 C 5.0007504 15.810276 5.0070532 15.620627 5.0175781 15.431641 C 5.0912523 14.108732 5.4022463 12.808324 5.9394531 11.59375 L 5.9355469 11.564453 C 6.0750358 11.248426 6.2310177 10.942172 6.3984375 10.642578 L 5.6660156 9.9101562 z " />
  <g
     class="ColorScheme-Text"
     fill="currentColor"
     id="g2102"
     style="color:#232629"
     transform="translate(5,4.499)">
    <path
       d="M 6.79,3.707 5.922,4.207 7.568,7.057 5.32,6.455 5.06,7.422 8.275,8.283 9.845,11 H 6.708 L 4.354,8.646 3.646,9.354 5.293,11 H 2 v 1 H 5.293 L 3.646,13.646 4.354,14.354 6.707,12 H 9.84 l -1.567,2.713 -3.214,0.861 0.257,0.967 2.25,-0.604 -1.646,2.853 0.865,0.5 1.647,-2.852 0.603,2.25 L 10,18.428 9.139,15.212 10.994,12 H 11 l 1.857,3.219 -0.86,3.215 0.966,0.257 0.601,-2.248 1.647,2.852 0.867,-0.5 -1.646,-2.852 2.248,0.602 L 16.94,15.58 13.725,14.719 12.155,12 h 3.138 l 2.353,2.354 0.708,-0.708 L 16.707,12 H 20 V 11 H 16.707 L 18.354,9.354 18.303,9.294 H 17 L 15.293,11 12.151,11.002 12.194069,10.614382 13.721,8.285 16.936,7.424 16.676,6.457 14.428,7.059 16.074,4.209 15.206,3.709 13.56,6.56 12.959,4.31 11.993,4.57 12.853,7.785 10.998,10.998 9.143,7.783 10.003,4.568 9.037,4.308 8.436,6.558 Z"
       id="path2098"
       sodipodi:nodetypes="cccccccccccccccccccccccccccccccccccccccccccccccccccccccccccccccccccccc" />
  </g>
  <g
     class="ColorScheme-Text"
     fill="currentColor"
     id="g2102-9"
     style="color:#232629"
     transform="matrix(-1,0,0,1,27,4.499)" />
</svg>
