{
	"KPlugin": {
		"Authors": [
			{
				"Email": "olib141@outlook.com",
				"Name": "Oliver Beard"
			}
		],
		"Category": "Hardware",
		"Description": "Control Lenovo Ideapad settings",
		"Icon": "coordinate",
		"Id": "olib.ideapadcontrols",
		"License": "MIT",
		"Name": "Ideapad Controls",
		"ServiceTypes": [
			"Plasma/Applet"
		],
		"Version": "0.1.0",
		"Website": "https://invent.kde.org/olib/ideapadcontrols",
		"EnabledByDefault": true
	},
	"X-Plasma-API": "declarativeappletscript",
	"X-Plasma-MainScript": "ui/main.qml",
	"X-Plasma-NotificationArea": "true",
	"X-Plasma-NotificationAreaCategory": "SystemServices"
}
